[
    {
      "id": 12,
      "title": "Undefined"
    },
    {
      "id": 7,
      "title": "Reference"
    },
    {
      "id": 10,
      "title": "Papers"
    },
    {
      "id": 17,
      "title": "Academy Publication"
    },
    {
      "id": 5,
      "title": "General"
    },
    {
      "id": 6,
      "title": "Report"
    },
    {
      "id": 8,
      "title": "Serials"
    },
    {
      "id": 14,
      "title": "Oriental Publications"
    },
    {
      "id": 9,
      "title": "Research"
    },
    {
      "id": 11,
      "title": "Academy Journals"
    }
  ]